%YAML 1.1
%TAG !u! tag:unity3d.com,2011:
--- !u!21 &2100000
Material:
  serializedVersion: 6
  m_ObjectHideFlags: 0
  m_CorrespondingSourceObject: {fileID: 0}
  m_PrefabInstance: {fileID: 0}
  m_PrefabAsset: {fileID: 0}
  m_Name: WaterfallMat
  m_Shader: {fileID: 4800000, guid: 89945ef739355f4448232dab47a310b4, type: 3}
  m_ShaderKeywords: 
  m_LightmapFlags: 4
  m_EnableInstancingVariants: 0
  m_DoubleSidedGI: 0
  m_CustomRenderQueue: -1
  stringTagMap: {}
  disabledShaderPasses: []
  m_SavedProperties:
    serializedVersion: 3
    m_TexEnvs:
    - _BumpMap:
        m_Texture: {fileID: 0}
        m_Scale: {x: 1, y: 1}
        m_Offset: {x: 0, y: 0}
    - _DetailAlbedoMap:
        m_Texture: {fileID: 0}
        m_Scale: {x: 1, y: 1}
        m_Offset: {x: 0, y: 0}
    - _DetailMask:
        m_Texture: {fileID: 0}
        m_Scale: {x: 1, y: 1}
        m_Offset: {x: 0, y: 0}
    - _DetailNormalMap:
        m_Texture: {fileID: 0}
        m_Scale: {x: 1, y: 1}
        m_Offset: {x: 0, y: 0}
    - _EmissionMap:
        m_Texture: {fileID: 0}
        m_Scale: {x: 1, y: 1}
        m_Offset: {x: 0, y: 0}
    - _MainTex:
        m_Texture: {fileID: 0}
        m_Scale: {x: 1, y: 1}
        m_Offset: {x: 0, y: 0}
    - _MetallicGlossMap:
        m_Texture: {fileID: 0}
        m_Scale: {x: 1, y: 1}
        m_Offset: {x: 0, y: 0}
    - _OcclusionMap:
        m_Texture: {fileID: 0}
        m_Scale: {x: 1, y: 1}
        m_Offset: {x: 0, y: 0}
    - _ParallaxMap:
        m_Texture: {fileID: 0}
        m_Scale: {x: 1, y: 1}
        m_Offset: {x: 0, y: 0}
    - _ReflectionTex:
        m_Texture: {fileID: 0}
        m_Scale: {x: 1, y: 1}
        m_Offset: {x: 0, y: 0}
    - _SideNoiseTex:
        m_Texture: {fileID: 2800000, guid: ffa1115970f74acaf80388fedf42a33f, type: 3}
        m_Scale: {x: 1, y: 1}
        m_Offset: {x: 0, y: 0}
    - _TopNoiseTex:
        m_Texture: {fileID: 0}
        m_Scale: {x: 1, y: 1}
        m_Offset: {x: 0, y: 0}
    m_Floats:
    - _Amount: 0
    - _BrightNess: 1.2
    - _Brightness: 1.2
    - _BumpScale: 1
    - _Cutoff: 0.5
    - _DepthOffset: 0
    - _DetailNormalMapScale: 1
    - _DstBlend: 0
    - _EdgeWidth: 0.13
    - _Foam: 1
    - _FoamPulse: 4.58
    - _GlossMapScale: 1
    - _Glossiness: 0.5
    - _GlossyReflections: 1
    - _Height: 0
    - _HorSpeed: 0.14
    - _Metallic: 0
    - _Mode: 0
    - _NoiseScale: 0.04
    - _OcclusionStrength: 1
    - _Parallax: 0.02
    - _RIM: 0
    - _Reflectivity: 0
    - _RimPower: 18
    - _SmoothnessTextureChannel: 0
    - _Softness: 0.1
    - _SpecularHighlights: 1
    - _SpeedV: 0
    - _SrcBlend: 1
    - _Stretch: 2
    - _TopScale: 0.4
    - _TopSpread: 0.05
    - _UVSec: 0
    - _VERTEX: 0
    - _VertSpeed: 6.8
    - _ZWrite: 1
    m_Colors:
    - _Color: {r: 0, g: 0.8953786, b: 1, a: 1}
    - _EmissionColor: {r: 0, g: 0, b: 0, a: 1}
    - _FoamColor: {r: 1, g: 1, b: 1, a: 1}
    - _RimColor: {r: 0, g: 0.5, b: 0.24999997, a: 1}
    - _TColor: {r: 0, g: 1, b: 1, a: 1}
    - _WaterColor: {r: 0, g: 0.91027117, b: 1, a: 1}
